index
…
Text Mining Techniques

Pre-processing

Stop word removal

Removing common words that do not contribute to meaning

data("stop_words")
stop_words

# A tibble: 1,149 × 2
   word        lexicon
   <chr>       <chr>  
 1 a           SMART  
 2 a's         SMART  
 3 able        SMART  
 4 about       SMART  
 5 above       SMART  
 6 according   SMART  
 7 accordingly SMART  
 8 across      SMART  
 9 actually    SMART  
10 after       SMART  
# ℹ 1,139 more rows
…
# A tibble: 5 × 2
  doc_id text                                                
   <int> <chr>                                               
1      1 Text mining is important in academic research.      
2      2 Feature extraction is a crucial step in text mining.
3      3 Cats and dogs are popular pets.                     
4      4 Elephants are large animals.                        
5      5 Whales are mammals that live in the ocean.          

tokens <- text_df %>%
  unnest_tokens(word, text)
tokens

# A tibble: 34 × 2
   doc_id word      
    <int> <chr>     
 1      1 text      
 2      1 mining    
 3      1 is        
 4      1 important 
 5      1 in        
 6      1 academic  
 7      1 research  
 8      2 feature   
 9      2 extraction
10      2 is        
# ℹ 24 more rows
…
\(df_{term}\) : # of documents containing the term

\(N\) : total number of documents

A high \(tf_{t,d}\) indicates that the term is highly significant within the document, while a high \(df_{t}\) suggests that the term is widely used across various documents (e.g., common verbs). Multiplying by \(idf_{t}\) helps to account for the term’s universality. Ultimately, tf-idf effectively captures a term’s uniqueness and importance, taking into consideration its prevalence across documents.

As an example,

# Calculate the TF-IDF scores
tf_idf <- tokens %>%
  count(doc_id, word) %>%
  bind_tf_idf(word, doc_id, n)
tf_idf

# A tibble: 34 × 6
   doc_id word           n    tf   idf tf_idf
    <int> <chr>      <int> <dbl> <dbl>  <dbl>
 1      1 academic       1 0.143 1.61  0.230 
 2      1 important      1 0.143 1.61  0.230 
 3      1 in             1 0.143 0.511 0.0730
 4      1 is             1 0.143 0.916 0.131 
 5      1 mining         1 0.143 0.916 0.131 
 6      1 research       1 0.143 1.61  0.230 
 7      1 text           1 0.143 0.916 0.131 
 8      2 a              1 0.111 1.61  0.179 
 9      2 crucial        1 0.111 1.61  0.179 
10      2 extraction     1 0.111 1.61  0.179 
# ℹ 24 more rows
…
Text Clustering

Latent Dirichlet Allocation (LDA) (a.k.a. topic modeling)

Probabilistic topic modeling method that assigns documents to a mixture of topics

Suitable for discovering latent topics in text data

library(topicmodels)

# Pre-processing and feature extraction (Bag of Words)
tokens

# A tibble: 34 × 2
   doc_id word      
    <int> <chr>     
 1      1 text      
 2      1 mining    
 3      1 is        
 4      1 important 
 5      1 in        
 6      1 academic  
 7      1 research  
 8      2 feature   
 9      2 extraction
10      2 is        
# ℹ 24 more rows
…
Lexicon-based methods

Machine learning-based methods

Deep learning-based methods

Utilize pre-defined lists of words with associated sentiment scores

Calculate overall sentiment by aggregating scores of individual words

# Pre-processing
tokens

# A tibble: 34 × 2
   doc_id word      
    <int> <chr>     
 1      1 text      
 2      1 mining    
 3      1 is        
 4      1 important 
 5      1 in        
 6      1 academic  
 7      1 research  
 8      2 feature   
 9      2 extraction
10      2 is        
# ℹ 24 more rows
…
# Tokenization
tokens <- text_data %>%
  unnest_tokens(word, text) %>%
  anti_join(stop_words) %>%
  group_by(doc_id) %>%
  count(word, sort = TRUE)
tokens

# A tibble: 67 × 3
# Groups:   doc_id [6]
   doc_id word          n
    <int> <chr>     <int>
 1      1 data          3
 2      1 mining        2
 3      2 learning      2
 4      4 data          2
 5      4 mining        2
 6      6 data          2
 7      1 amounts       1
 8      1 analyze       1
 9      1 essential     1
10      1 science       1
# ℹ 57 more rows

Calculate word co-occurrence matrix

Convert co-occurrence matrix to a graph object

Visualize the keyword network

# Calculate co-occurrence matrix
co_occurrence_matrix <- tokens %>%
  ungroup() %>%
  pairwise_count(word, doc_id, sort = TRUE)

co_occurrence_matrix

# A tibble: 586 × 3
   item1    item2        n
   <chr>    <chr>    <dbl>
 1 text     mining       5
 2 mining   text         5
 3 mining   data         4
 4 data     mining       4
 5 text     data         3
 6 learning mining       3
 7 analysis mining       3
 8 machine  mining       3
 9 mining   learning     3
10 text     learning     3
# ℹ 576 more rows
…
